Spiny Lobsters SBC Study
…
## # A tibble: 35 x 3
##     year site      n
##    <dbl> <chr> <int>
##  1  2012 AQUE     53
##  2  2012 CARP     81
##  3  2012 IVEE     47
##  4  2012 MOHK     58
##  5  2012 NAPL     37
##  6  2013 AQUE     46
##  7  2013 CARP     88
##  8  2013 IVEE     57
##  9  2013 MOHK     18
## 10  2013 NAPL     73
## #  with 25 more rows
…
